[gd_scene load_steps=2 format=3 uid="uid://c18qf7xokw74d"]

[ext_resource type="Script" path="res://random_rules_automata/random_rules_automata.gd" id="1_3gw57"]

[node name="random_rules_automata" type="Node2D"]
script = ExtResource("1_3gw57")

[node name="rules" type="Label" parent="."]
offset_right = 60.0
offset_bottom = 101.0
